EESchema Schematic File Version 4
LIBS:futokoroshi-cache
EELAYER 30 0
EELAYER END
$Descr A3 16535 11693
encoding utf-8
Sheet 3 4
Title ""
Date ""
Rev ""
Comp ""
Comment1 ""
Comment2 ""
Comment3 ""
Comment4 ""
$EndDescr
$Comp
L futokoroshi:RaspberryPiComputeModule3.0 U?
U 2 1 5D82F976
P 7500 10000
AR Path="/5D82F976" Ref="U?"  Part="2" 
AR Path="/5D814579/5D82F976" Ref="U2"  Part="2" 
F 0 "U2" H 6900 14167 50  0000 C CNN
F 1 "RaspberryPiComputeModule3.0" H 6900 14076 50  0000 C CNN
F 2 "futokoroshi:DDR2_SODIMM-Socket_TE-14731494" H 5300 9700 50  0001 L BNN
F 3 "https://www.raspberrypi.org/documentation/hardware/computemodule/datasheets/rpi_DATA_CM_1p0.pdf" H 5300 9700 50  0001 L BNN
	2    7500 10000
	1    0    0    -1  
$EndComp
$Comp
L futokoroshi:RaspberryPiComputeModule3.0 U?
U 1 1 5D82F970
P 7500 1800
AR Path="/5D82F970" Ref="U?"  Part="1" 
AR Path="/5D814579/5D82F970" Ref="U2"  Part="1" 
F 0 "U2" H 7575 3067 50  0000 C CNN
F 1 "RaspberryPiComputeModule3.0" H 7575 2976 50  0000 C CNN
F 2 "futokoroshi:DDR2_SODIMM-Socket_TE-14731494" H 5300 1500 50  0001 L BNN
F 3 "https://www.raspberrypi.org/documentation/hardware/computemodule/datasheets/rpi_DATA_CM_1p0.pdf" H 5300 1500 50  0001 L BNN
	1    7500 1800
	1    0    0    -1  
$EndComp
Wire Wire Line
	8600 1150 8700 1150
Wire Wire Line
	8700 1450 8700 1150
Connection ~ 8700 1450
Wire Wire Line
	8750 10550 8750 10650
Connection ~ 8750 10550
Wire Wire Line
	8600 10550 8750 10550
Wire Wire Line
	8700 9450 8700 9150
Connection ~ 8700 9450
Wire Wire Line
	8600 9450 8700 9450
Wire Wire Line
	8700 10750 8700 10350
Connection ~ 8700 10750
Wire Wire Line
	8600 10750 8700 10750
Connection ~ 8700 10350
Wire Wire Line
	8600 10350 8700 10350
Wire Wire Line
	8700 10050 8700 9450
Connection ~ 8700 10050
Wire Wire Line
	8600 10050 8700 10050
Wire Wire Line
	8700 9150 8700 8550
Connection ~ 8700 9150
Wire Wire Line
	8600 9150 8700 9150
Wire Wire Line
	8700 8550 8700 8250
Connection ~ 8700 8550
Wire Wire Line
	8600 8550 8700 8550
Wire Wire Line
	8700 8250 8700 7950
Connection ~ 8700 8250
Wire Wire Line
	8600 8250 8700 8250
Wire Wire Line
	8700 7950 8700 7650
Connection ~ 8700 7950
Wire Wire Line
	8600 7950 8700 7950
Wire Wire Line
	8700 7650 8700 7050
Connection ~ 8700 7650
Wire Wire Line
	8600 7650 8700 7650
Wire Wire Line
	8700 7050 8700 6750
Connection ~ 8700 7050
Wire Wire Line
	8600 7050 8700 7050
Wire Wire Line
	8700 6750 8700 6450
Connection ~ 8700 6750
Wire Wire Line
	8600 6750 8700 6750
Wire Wire Line
	8700 6450 8700 6150
Connection ~ 8700 6450
Wire Wire Line
	8600 6450 8700 6450
Wire Wire Line
	8700 6150 8700 5850
Connection ~ 8700 6150
Wire Wire Line
	8600 6150 8700 6150
Wire Wire Line
	8700 5850 8700 5550
Connection ~ 8700 5850
Wire Wire Line
	8600 5850 8700 5850
Wire Wire Line
	8700 5550 8700 5250
Connection ~ 8700 5550
Wire Wire Line
	8600 5550 8700 5550
Wire Wire Line
	8700 5250 8700 4950
Connection ~ 8700 5250
Wire Wire Line
	8600 5250 8700 5250
Wire Wire Line
	8700 4950 8700 4650
Connection ~ 8700 4950
Wire Wire Line
	8600 4950 8700 4950
Wire Wire Line
	8700 4650 8700 4350
Connection ~ 8700 4650
Wire Wire Line
	8600 4650 8700 4650
Wire Wire Line
	8700 4350 8700 4050
Connection ~ 8700 4350
Wire Wire Line
	8600 4350 8700 4350
Wire Wire Line
	8700 4050 8700 3750
Connection ~ 8700 4050
Wire Wire Line
	8600 4050 8700 4050
Wire Wire Line
	8700 3750 8700 3450
Connection ~ 8700 3750
Wire Wire Line
	8600 3750 8700 3750
Wire Wire Line
	8700 3450 8700 3150
Connection ~ 8700 3450
Wire Wire Line
	8600 3450 8700 3450
Wire Wire Line
	8700 3150 8700 2650
Connection ~ 8700 3150
Wire Wire Line
	8600 3150 8700 3150
Wire Wire Line
	8700 2650 8700 2350
Connection ~ 8700 2650
Wire Wire Line
	8600 2650 8700 2650
Wire Wire Line
	8700 2350 8700 2050
Connection ~ 8700 2350
Wire Wire Line
	8600 2350 8700 2350
Wire Wire Line
	8700 2050 8700 1750
Connection ~ 8700 2050
Wire Wire Line
	8600 2050 8700 2050
Wire Wire Line
	8700 1750 8700 1450
Connection ~ 8700 1750
Wire Wire Line
	8600 1750 8700 1750
Wire Wire Line
	8600 1450 8700 1450
Wire Wire Line
	8800 800  8800 10150
Wire Wire Line
	8600 10250 8800 10250
Wire Wire Line
	8750 10650 8600 10650
$Comp
L power:+3V3 #PWR0101
U 1 1 5D87808D
P 8650 750
F 0 "#PWR0101" H 8650 600 50  0001 C CNN
F 1 "+3V3" H 8665 923 50  0000 C CNN
F 2 "" H 8650 750 50  0001 C CNN
F 3 "" H 8650 750 50  0001 C CNN
	1    8650 750 
	1    0    0    -1  
$EndComp
$Comp
L power:+1V8 #PWR0102
U 1 1 5D877BCC
P 8900 750
F 0 "#PWR0102" H 8900 600 50  0001 C CNN
F 1 "+1V8" H 8915 923 50  0000 C CNN
F 2 "" H 8900 750 50  0001 C CNN
F 3 "" H 8900 750 50  0001 C CNN
	1    8900 750 
	1    0    0    -1  
$EndComp
Wire Wire Line
	8900 800  8800 800 
Wire Wire Line
	8900 800  8900 750 
Wire Wire Line
	8650 800  8750 800 
Wire Wire Line
	8650 750  8650 800 
Wire Wire Line
	8700 11050 8700 10750
$Comp
L power:GND #PWR0103
U 1 1 5D8556D5
P 8700 11050
F 0 "#PWR0103" H 8700 10800 50  0001 C CNN
F 1 "GND" H 8705 10877 50  0000 C CNN
F 2 "" H 8700 11050 50  0001 C CNN
F 3 "" H 8700 11050 50  0001 C CNN
	1    8700 11050
	1    0    0    -1  
$EndComp
$Comp
L power:+5V #PWR0104
U 1 1 5D8F916A
P 6050 10750
F 0 "#PWR0104" H 6050 10600 50  0001 C CNN
F 1 "+5V" H 6065 10923 50  0000 C CNN
F 2 "" H 6050 10750 50  0001 C CNN
F 3 "" H 6050 10750 50  0001 C CNN
	1    6050 10750
	1    0    0    -1  
$EndComp
Wire Wire Line
	6300 850  6300 1150
Wire Wire Line
	6300 850  6400 850 
Wire Wire Line
	6400 1150 6300 1150
Connection ~ 6300 1150
$Comp
L power:+1V8 #PWR0105
U 1 1 5D86331D
P 6100 750
F 0 "#PWR0105" H 6100 600 50  0001 C CNN
F 1 "+1V8" H 6115 923 50  0000 C CNN
F 2 "" H 6100 750 50  0001 C CNN
F 3 "" H 6100 750 50  0001 C CNN
	1    6100 750 
	1    0    0    -1  
$EndComp
Wire Wire Line
	6100 750  6100 800 
Wire Wire Line
	6100 800  6200 800 
Wire Wire Line
	6350 800  6250 800 
Wire Wire Line
	6200 800  6200 10150
Wire Wire Line
	6300 1150 6300 1450
Wire Wire Line
	6400 1450 6300 1450
Connection ~ 6300 1450
Wire Wire Line
	6300 1450 6300 1750
Wire Wire Line
	6250 800  6250 10450
Connection ~ 6300 1750
Connection ~ 6250 10550
Wire Wire Line
	6250 10650 6250 10550
Wire Wire Line
	6400 10650 6250 10650
$Comp
L power:GND #PWR0106
U 1 1 5D854156
P 6300 11050
F 0 "#PWR0106" H 6300 10800 50  0001 C CNN
F 1 "GND" H 6305 10877 50  0000 C CNN
F 2 "" H 6300 11050 50  0001 C CNN
F 3 "" H 6300 11050 50  0001 C CNN
	1    6300 11050
	1    0    0    -1  
$EndComp
Wire Wire Line
	6300 10350 6300 10750
Wire Wire Line
	6400 10750 6300 10750
Connection ~ 6300 10750
Wire Wire Line
	6300 10750 6300 11050
Connection ~ 6300 10350
Wire Wire Line
	6300 6450 6300 7050
Wire Wire Line
	6300 10050 6300 10350
Connection ~ 6300 10050
Wire Wire Line
	6400 10050 6300 10050
Wire Wire Line
	6400 10350 6300 10350
Wire Wire Line
	6300 9450 6300 10050
Connection ~ 6300 9450
Wire Wire Line
	6400 9450 6300 9450
Wire Wire Line
	6300 9150 6300 9450
Connection ~ 6300 9150
Wire Wire Line
	6400 9150 6300 9150
Wire Wire Line
	6300 8850 6300 9150
Connection ~ 6300 8850
Wire Wire Line
	6400 8850 6300 8850
Wire Wire Line
	6300 8550 6300 8850
Connection ~ 6300 8550
Wire Wire Line
	6400 8550 6300 8550
Wire Wire Line
	6300 8250 6300 8550
Connection ~ 6300 8250
Wire Wire Line
	6400 8250 6300 8250
Wire Wire Line
	6300 7950 6300 8250
Connection ~ 6300 7950
Wire Wire Line
	6400 7950 6300 7950
Wire Wire Line
	6300 7650 6300 7950
Connection ~ 6300 7650
Wire Wire Line
	6400 7650 6300 7650
Wire Wire Line
	6300 7350 6300 7650
Connection ~ 6300 7350
Wire Wire Line
	6400 7350 6300 7350
Wire Wire Line
	6300 7050 6300 7350
Connection ~ 6300 7050
Wire Wire Line
	6400 7050 6300 7050
Connection ~ 6300 6450
Wire Wire Line
	6400 6450 6300 6450
Wire Wire Line
	6300 6150 6300 6450
Connection ~ 6300 6150
Wire Wire Line
	6400 6150 6300 6150
Wire Wire Line
	6300 5850 6300 6150
Connection ~ 6300 5850
Wire Wire Line
	6400 5850 6300 5850
Wire Wire Line
	6300 5550 6300 5850
Connection ~ 6300 5550
Wire Wire Line
	6400 5550 6300 5550
Wire Wire Line
	6300 5250 6300 5550
Connection ~ 6300 5250
Wire Wire Line
	6400 5250 6300 5250
Wire Wire Line
	6300 4950 6300 5250
Connection ~ 6300 4950
Wire Wire Line
	6400 4950 6300 4950
Wire Wire Line
	6300 4650 6300 4950
Connection ~ 6300 4650
Wire Wire Line
	6400 4650 6300 4650
Wire Wire Line
	6300 4350 6300 4650
Connection ~ 6300 4350
Wire Wire Line
	6400 4350 6300 4350
Wire Wire Line
	6300 4050 6300 4350
Connection ~ 6300 4050
Wire Wire Line
	6400 4050 6300 4050
Wire Wire Line
	6300 3750 6300 4050
Connection ~ 6300 3750
Wire Wire Line
	6400 3750 6300 3750
Wire Wire Line
	6300 3450 6300 3750
Connection ~ 6300 3450
Wire Wire Line
	6400 3450 6300 3450
Wire Wire Line
	6300 3150 6300 3450
Connection ~ 6300 3150
Wire Wire Line
	6400 3150 6300 3150
Wire Wire Line
	6300 2650 6300 3150
Connection ~ 6300 2650
Wire Wire Line
	6400 2650 6300 2650
Wire Wire Line
	6300 2350 6300 2650
Connection ~ 6300 2350
Wire Wire Line
	6400 2350 6300 2350
Connection ~ 6300 2050
Wire Wire Line
	6400 2050 6300 2050
Wire Wire Line
	6300 1750 6300 2050
Wire Wire Line
	6400 1750 6300 1750
Wire Wire Line
	6400 10150 6200 10150
Wire Wire Line
	6400 10550 6250 10550
Wire Wire Line
	6350 800  6350 750 
$Comp
L power:+3V3 #PWR0107
U 1 1 5D862A82
P 6350 750
F 0 "#PWR0107" H 6350 600 50  0001 C CNN
F 1 "+3V3" H 6365 923 50  0000 C CNN
F 2 "" H 6350 750 50  0001 C CNN
F 3 "" H 6350 750 50  0001 C CNN
	1    6350 750 
	1    0    0    -1  
$EndComp
Wire Wire Line
	6400 10850 6050 10850
Wire Wire Line
	6050 10850 6050 10750
Wire Wire Line
	6050 10850 6050 10950
Wire Wire Line
	6050 10950 6400 10950
Connection ~ 6050 10850
$Comp
L power:+5V #PWR0108
U 1 1 5D9967EF
P 8900 10750
F 0 "#PWR0108" H 8900 10600 50  0001 C CNN
F 1 "+5V" H 8915 10923 50  0000 C CNN
F 2 "" H 8900 10750 50  0001 C CNN
F 3 "" H 8900 10750 50  0001 C CNN
	1    8900 10750
	1    0    0    -1  
$EndComp
Wire Wire Line
	8600 10850 8900 10850
Wire Wire Line
	8900 10850 8900 10750
Wire Wire Line
	8600 10950 8900 10950
Wire Wire Line
	8900 10950 8900 10850
Connection ~ 8900 10850
Text GLabel 5500 950  0    50   Input ~ 0
LCD_CLK
Wire Wire Line
	6400 950  5500 950 
Text GLabel 5500 1050 0    50   Input ~ 0
LCD_DE
Text GLabel 5500 1250 0    50   Input ~ 0
LCD_VSYNC
Text GLabel 5500 1350 0    50   Input ~ 0
LCD_HSYNC
Text GLabel 5500 1550 0    50   Input ~ 0
LCD_B2
Text GLabel 5500 1650 0    50   Input ~ 0
LCD_B3
Text GLabel 5500 1850 0    50   Input ~ 0
LCD_B4
Text GLabel 5500 1950 0    50   Input ~ 0
LCD_B5
Text GLabel 5500 2150 0    50   Input ~ 0
LCD_B6
Text GLabel 5500 2250 0    50   Input ~ 0
LCD_B7
Text GLabel 5500 2450 0    50   Input ~ 0
LCD_G2
Text GLabel 5500 2550 0    50   Input ~ 0
LCD_G3
Text GLabel 5500 3250 0    50   Input ~ 0
LCD_G4
Text GLabel 5500 3350 0    50   Input ~ 0
LCD_G5
Text GLabel 5500 3550 0    50   Input ~ 0
LCD_G6
Text GLabel 5500 3650 0    50   Input ~ 0
LCD_G7
Text GLabel 5500 3850 0    50   Input ~ 0
LCD_R2
Text GLabel 5500 3950 0    50   Input ~ 0
LCD_R3
Text GLabel 5500 4150 0    50   Input ~ 0
LCD_R4
Text GLabel 5500 4250 0    50   Input ~ 0
LCD_R5
Text GLabel 5500 4450 0    50   Input ~ 0
LCD_R6
Text GLabel 5500 4550 0    50   Input ~ 0
LCD_R7
Wire Wire Line
	6400 1050 5500 1050
Wire Wire Line
	6400 1250 5500 1250
Wire Wire Line
	6400 1350 5500 1350
Wire Wire Line
	6400 1550 5500 1550
Wire Wire Line
	6400 1650 5500 1650
Wire Wire Line
	6400 1850 5500 1850
Wire Wire Line
	6400 1950 5500 1950
Wire Wire Line
	6300 2050 6300 2350
Wire Wire Line
	6400 2150 5500 2150
Wire Wire Line
	6400 2250 5500 2250
Wire Wire Line
	6400 2450 5500 2450
Wire Wire Line
	6400 2550 5500 2550
Wire Wire Line
	6400 3250 5500 3250
Wire Wire Line
	6400 3350 5500 3350
Wire Wire Line
	6400 3550 5500 3550
Wire Wire Line
	6400 3650 5500 3650
Wire Wire Line
	6400 3850 5500 3850
Wire Wire Line
	6400 3950 5500 3950
Wire Wire Line
	6400 4150 5500 4150
Wire Wire Line
	6400 4250 5500 4250
Wire Wire Line
	6400 4450 5500 4450
Wire Wire Line
	6250 10450 6400 10450
Connection ~ 6250 10450
Wire Wire Line
	6250 10450 6250 10550
Wire Wire Line
	8600 10450 8750 10450
Connection ~ 8750 10450
Wire Wire Line
	8750 10450 8750 10550
Wire Wire Line
	8700 10350 8700 10050
Wire Wire Line
	8750 800  8750 10450
Wire Wire Line
	8600 10150 8800 10150
Connection ~ 8800 10150
Wire Wire Line
	8800 10150 8800 10250
Wire Wire Line
	6400 10250 6200 10250
Wire Wire Line
	6200 10250 6200 10150
Connection ~ 6200 10150
Wire Notes Line
	5600 4600 4900 4600
Wire Notes Line
	4900 900  5600 900 
Text Notes 4850 4400 1    50   ~ 0
Signals of LCD Display
Wire Wire Line
	6400 4550 5500 4550
Wire Notes Line
	5600 900  5600 4600
Wire Notes Line
	4900 900  4900 4600
Wire Wire Line
	6400 4750 5500 4750
Text GLabel 5500 4750 0    50   Input ~ 0
LCD's_Backlight_Control
Text GLabel 21750 2000 0    50   Input ~ 0
LCD's_Backlight_Control
Text GLabel 500  7300 0    50   Input ~ 0
EXAM_LCD_DISP
$Comp
L futokoroshi:LED-Driver_LM3410XSD_NOPB U3
U 1 1 5D877763
P 23300 1950
F 0 "U3" H 23300 2387 60  0000 C CNN
F 1 "LED-Driver_LM3410XSD_NOPB" H 23300 2281 60  0000 C CNN
F 2 "futokoroshi:LM3410XSD_NOPB" H 24000 1840 60  0001 C CNN
F 3 "https://www.digikey.jp/product-detail/ja/texas-instruments/LM3410XSD-NOPB/LM3410XSD-NOPBCT-ND/1778509" H 22650 2100 60  0001 C CNN
	1    23300 1950
	1    0    0    -1  
$EndComp
$Comp
L futokoroshi:EXAM_PIN_HEADER_2x4 EXAM1
U 1 1 5D8CC0ED
P 1000 7450
F 0 "EXAM1" H 1000 7865 50  0000 C CNN
F 1 "EXAM_PIN_HEADER_2x4" H 1000 7774 50  0000 C CNN
F 2 "" H 1050 7150 50  0001 C CNN
F 3 "" H 1050 7150 50  0001 C CNN
	1    1000 7450
	1    0    0    -1  
$EndComp
Wire Wire Line
	23950 1900 24050 1900
Wire Wire Line
	24050 2600 23500 2600
Wire Wire Line
	22550 2600 22550 1800
Wire Wire Line
	22550 1800 22650 1800
Wire Wire Line
	23300 2400 23300 2600
Connection ~ 23300 2600
Wire Wire Line
	23300 2600 22550 2600
Wire Wire Line
	24050 1900 24050 2600
Wire Wire Line
	23950 2000 24150 2000
Wire Wire Line
	24150 2000 24150 2300
Wire Wire Line
	22650 1900 22450 1900
$Comp
L Device:R_US R2
U 1 1 5D9EDB68
P 22300 1650
F 0 "R2" H 22233 1604 50  0000 R CNN
F 1 "100k" H 22233 1695 50  0000 R CNN
F 2 "" V 22340 1640 50  0001 C CNN
F 3 "~" H 22300 1650 50  0001 C CNN
	1    22300 1650
	1    0    0    1   
$EndComp
$Comp
L Device:C C4
U 1 1 5D9EF00F
P 21850 1650
F 0 "C4" H 21736 1604 50  0000 R CNN
F 1 "10uF" H 21736 1695 50  0000 R CNN
F 2 "" H 21888 1500 50  0001 C CNN
F 3 "~" H 21850 1650 50  0001 C CNN
	1    21850 1650
	1    0    0    1   
$EndComp
Wire Wire Line
	22300 1800 22300 2000
Connection ~ 22300 2000
Wire Wire Line
	22300 2000 22650 2000
Wire Wire Line
	21750 2000 22300 2000
Wire Wire Line
	21850 1800 21850 2600
Wire Wire Line
	21850 2600 22550 2600
Connection ~ 22550 2600
Wire Wire Line
	22450 1300 22300 1300
Wire Wire Line
	21850 1300 21850 1500
Wire Wire Line
	22450 1300 22450 1900
Wire Wire Line
	22300 1500 22300 1300
Connection ~ 22300 1300
Wire Wire Line
	22300 1300 21850 1300
$Comp
L power:+5V #PWR04
U 1 1 5DA92C88
P 21700 1200
F 0 "#PWR04" H 21700 1050 50  0001 C CNN
F 1 "+5V" H 21715 1373 50  0000 C CNN
F 2 "" H 21700 1200 50  0001 C CNN
F 3 "" H 21700 1200 50  0001 C CNN
	1    21700 1200
	1    0    0    -1  
$EndComp
Wire Wire Line
	21700 1300 21700 1200
$Comp
L Device:L L1
U 1 1 5DAC3EC6
P 23300 1300
F 0 "L1" V 23490 1300 50  0000 C CNN
F 1 "15uH" V 23399 1300 50  0000 C CNN
F 2 "" H 23300 1300 50  0001 C CNN
F 3 "~" H 23300 1300 50  0001 C CNN
	1    23300 1300
	0    -1   -1   0   
$EndComp
Wire Wire Line
	22450 1300 23150 1300
Connection ~ 22450 1300
Wire Wire Line
	24150 1300 24150 1800
Connection ~ 23500 2600
Wire Wire Line
	23500 2600 23300 2600
$Comp
L power:GND #PWR05
U 1 1 5DB1083B
P 23500 2800
F 0 "#PWR05" H 23500 2550 50  0001 C CNN
F 1 "GND" H 23505 2627 50  0000 C CNN
F 2 "" H 23500 2800 50  0001 C CNN
F 3 "" H 23500 2800 50  0001 C CNN
	1    23500 2800
	1    0    0    -1  
$EndComp
Wire Wire Line
	21850 1300 21700 1300
Connection ~ 21850 1300
Connection ~ 24150 1300
Wire Wire Line
	24150 1100 24150 1300
Wire Wire Line
	23450 1300 24150 1300
Wire Wire Line
	23950 1800 24150 1800
$Comp
L Device:D_Schottky_ALT D1
U 1 1 5DC12BD1
P 24400 1100
F 0 "D1" H 24400 884 50  0000 C CNN
F 1 "0.4-VfSchottky500 mA, 30 VR" H 24400 975 50  0000 C CNN
F 2 "" H 24400 1100 50  0001 C CNN
F 3 "~" H 24400 1100 50  0001 C CNN
	1    24400 1100
	-1   0    0    1   
$EndComp
Wire Wire Line
	24150 1100 24250 1100
Text Label 24950 1100 0    50   ~ 0
VBacklight+
Text Label 24950 2300 0    50   ~ 0
VBacklight-
$Comp
L Device:R_US R3
U 1 1 5DCCE160
P 24650 2550
F 0 "R3" H 24718 2596 50  0000 L CNN
F 1 "3.3" H 24718 2505 50  0000 L CNN
F 2 "" V 24690 2540 50  0001 C CNN
F 3 "~" H 24650 2550 50  0001 C CNN
	1    24650 2550
	1    0    0    -1  
$EndComp
Wire Wire Line
	23500 2600 23500 2800
Text Notes 25350 2000 1    50   ~ 0
Backlight LED's here\ntyp. 16.8V,  max 19.8V\ntyp. 40mA
Connection ~ 24650 2300
Wire Wire Line
	24150 2300 24650 2300
Wire Wire Line
	24650 2300 24750 2300
$Comp
L Device:C C5
U 1 1 5DD55571
P 24650 1700
F 0 "C5" H 24765 1746 50  0000 L CNN
F 1 "4.7uF" H 24765 1655 50  0000 L CNN
F 2 "" H 24688 1550 50  0001 C CNN
F 3 "~" H 24650 1700 50  0001 C CNN
	1    24650 1700
	1    0    0    -1  
$EndComp
Wire Wire Line
	24550 1100 24650 1100
Connection ~ 24650 1100
Wire Wire Line
	24650 1100 24750 1100
Wire Wire Line
	24650 1850 24650 2300
Wire Wire Line
	24650 1100 24650 1550
Text Notes 21700 3650 0    50   ~ 0
\n\nrefs: \n1: LED Driver IC :: http://www.ti.com/lit/ds/symlink/lm3410.pdf\n2: LCD Display :: https://www.matrixorbital.com/index.php?route=extension/module/product_downloads/get&did=1103
Wire Wire Line
	24750 900  24850 900 
Connection ~ 24750 1100
Wire Wire Line
	24750 1100 24950 1100
Text GLabel 24850 900  2    50   Input ~ 0
EXAM_VBacklight+
Wire Wire Line
	24750 900  24750 1100
Wire Wire Line
	24750 2300 24750 2100
Wire Wire Line
	24750 2100 24850 2100
Connection ~ 24750 2300
Wire Wire Line
	24750 2300 24950 2300
Text GLabel 24850 2100 2    50   Input ~ 0
EXAM_VBacklight-
Text GLabel 500  7650 0    50   Input ~ 0
EXAM_VBacklight+
Text GLabel 500  7750 0    50   Input ~ 0
EXAM_VBacklight-
Text GLabel 500  7950 0    50   Input ~ 0
LCD's_Backlight_Control
Text Notes 23050 1450 0    50   ~ 0
SRF > Fsw(1.6Mhz)\nPower > 0.75w (LCD-LEDs)
Wire Wire Line
	24650 2300 24650 2400
Wire Wire Line
	24650 2700 24650 2800
$Comp
L power:GND #PWR?
U 1 1 5E2C287D
P 24650 2800
F 0 "#PWR?" H 24650 2550 50  0001 C CNN
F 1 "GND" H 24655 2627 50  0000 C CNN
F 2 "" H 24650 2800 50  0001 C CNN
F 3 "" H 24650 2800 50  0001 C CNN
	1    24650 2800
	1    0    0    -1  
$EndComp
Text Notes 24800 3350 0    50   ~ 0
R = V(FB) / I(LEDS) = 190mA/40mA = 4.75ohm\n\nto R, (A = 0.19 (::V(FB)) / R)\n4.75ohm => 40mA\n1.00ohm => 190mA\n\nmore current about to R, less current to LED backlight.\nSee: Calucuation about of LCD Backlight
Text GLabel 20050 4100 2    50   Input ~ 0
EXAM_LCD_DISP
Wire Wire Line
	19950 4100 20050 4100
Connection ~ 19950 4000
Wire Wire Line
	19950 4000 19950 4100
Wire Wire Line
	19950 3400 19950 3500
Wire Wire Line
	19950 3800 19950 4000
Wire Wire Line
	18550 4000 19950 4000
Wire Wire Line
	19450 1300 19950 1300
$Comp
L Device:R_US R1
U 1 1 5E8ED28E
P 19950 3650
F 0 "R1" H 20018 3696 50  0000 L CNN
F 1 "10k" H 20018 3605 50  0000 L CNN
F 2 "" V 19990 3640 50  0001 C CNN
F 3 "~" H 19950 3650 50  0001 C CNN
	1    19950 3650
	1    0    0    -1  
$EndComp
$Comp
L power:+3V3 #PWR03
U 1 1 5E8EBB9D
P 19950 3400
F 0 "#PWR03" H 19950 3250 50  0001 C CNN
F 1 "+3V3" H 19965 3573 50  0000 C CNN
F 2 "" H 19950 3400 50  0001 C CNN
F 3 "" H 19950 3400 50  0001 C CNN
	1    19950 3400
	1    0    0    -1  
$EndComp
Connection ~ 19950 1300
Connection ~ 19450 1300
Wire Wire Line
	19450 1300 19450 1500
Wire Wire Line
	19950 1300 19950 1500
Wire Wire Line
	19950 1200 19950 1300
$Comp
L power:+3V3 #PWR02
U 1 1 5E299DB9
P 19950 1200
F 0 "#PWR02" H 19950 1050 50  0001 C CNN
F 1 "+3V3" H 19965 1373 50  0000 C CNN
F 2 "" H 19950 1200 50  0001 C CNN
F 3 "" H 19950 1200 50  0001 C CNN
	1    19950 1200
	1    0    0    -1  
$EndComp
Wire Wire Line
	18550 1300 19450 1300
$Comp
L Device:C C2
U 1 1 5E072A3F
P 19450 1650
F 0 "C2" H 19565 1696 50  0000 L CNN
F 1 "100nF" H 19565 1605 50  0000 L CNN
F 2 "" H 19488 1500 50  0001 C CNN
F 3 "~" H 19450 1650 50  0001 C CNN
	1    19450 1650
	1    0    0    -1  
$EndComp
$Comp
L Device:C C3
U 1 1 5E073D84
P 19950 1650
F 0 "C3" H 20065 1696 50  0000 L CNN
F 1 "10uF" H 20065 1605 50  0000 L CNN
F 2 "" H 19988 1500 50  0001 C CNN
F 3 "~" H 19950 1650 50  0001 C CNN
	1    19950 1650
	1    0    0    -1  
$EndComp
Wire Wire Line
	19450 1800 19450 2000
Wire Wire Line
	19950 1800 19950 2000
Wire Wire Line
	19450 2000 19700 2000
Wire Wire Line
	19700 2000 19700 2100
Connection ~ 19700 2000
Wire Wire Line
	19700 2000 19950 2000
$Comp
L power:GND #PWR01
U 1 1 5E1F3D30
P 19700 2100
F 0 "#PWR01" H 19700 1850 50  0001 C CNN
F 1 "GND" H 19705 1927 50  0000 C CNN
F 2 "" H 19700 2100 50  0001 C CNN
F 3 "" H 19700 2100 50  0001 C CNN
	1    19700 2100
	1    0    0    -1  
$EndComp
Wire Wire Line
	18650 3100 18650 3800
Connection ~ 18650 3100
Wire Wire Line
	18550 3100 18650 3100
Wire Wire Line
	18650 3000 18650 3100
Connection ~ 18650 3000
Wire Wire Line
	18550 3000 18650 3000
Text Notes 18900 4900 2    50   ~ 0
YU
Text Notes 18900 4800 2    50   ~ 0
XL
Text Notes 18900 4700 2    50   ~ 0
YD
Text Notes 18900 4600 2    50   ~ 0
XR
Wire Wire Line
	18650 4500 18650 5300
Connection ~ 18650 4500
Wire Wire Line
	18550 4500 18650 4500
NoConn ~ 18750 4400
Text Notes 19150 4050 2    50   ~ 0
LCD_DISP
Text GLabel 18750 4300 2    50   Input ~ 0
LCD_DE
Text GLabel 18750 4200 2    50   Input ~ 0
LCD_VSYNC
Text GLabel 18750 4100 2    50   Input ~ 0
LCD_HSYNC
Text Notes 18900 3150 2    50   ~ 0
B1
Text Notes 18900 3050 2    50   ~ 0
B0
Text Notes 18900 1550 2    50   ~ 0
R1
Text Notes 18900 1450 2    50   ~ 0
R0
Wire Wire Line
	18650 3800 18650 4500
Connection ~ 18650 3800
Wire Wire Line
	18550 3800 18650 3800
Text GLabel 18750 3700 2    50   Input ~ 0
LCD_B7
Text GLabel 18750 3600 2    50   Input ~ 0
LCD_B6
Text GLabel 18750 3500 2    50   Input ~ 0
LCD_B5
Text GLabel 18750 3400 2    50   Input ~ 0
LCD_B4
Text GLabel 18750 3300 2    50   Input ~ 0
LCD_B3
Text GLabel 18750 3200 2    50   Input ~ 0
LCD_B2
Text GLabel 18750 2900 2    50   Input ~ 0
LCD_G7
Text GLabel 18750 2800 2    50   Input ~ 0
LCD_G6
Text GLabel 18750 2700 2    50   Input ~ 0
LCD_G5
Text GLabel 18750 2600 2    50   Input ~ 0
LCD_G4
Text GLabel 18750 2500 2    50   Input ~ 0
LCD_G3
Text GLabel 18750 2400 2    50   Input ~ 0
LCD_G2
Text GLabel 18750 2100 2    50   Input ~ 0
LCD_R7
Text GLabel 18750 2000 2    50   Input ~ 0
LCD_R6
Text GLabel 18750 1900 2    50   Input ~ 0
LCD_R5
Text GLabel 18750 1800 2    50   Input ~ 0
LCD_R4
Text GLabel 18750 1700 2    50   Input ~ 0
LCD_R3
Wire Wire Line
	18550 1700 18750 1700
Text GLabel 18750 1600 2    50   Input ~ 0
LCD_R2
Connection ~ 18650 1400
Wire Wire Line
	18650 1200 18650 1400
Text Label 18750 1100 0    50   ~ 0
VBacklight+
Text Label 18750 1000 0    50   ~ 0
VBacklight-
Connection ~ 18650 5300
Wire Wire Line
	18650 5300 18650 5400
Wire Wire Line
	18650 5300 18350 5300
Wire Wire Line
	18650 1500 18650 2200
Connection ~ 18650 1500
Wire Wire Line
	18550 1500 18650 1500
Wire Wire Line
	18650 1400 18650 1500
Text Notes 18800 2350 0    50   ~ 0
G1
Text Notes 18800 2250 0    50   ~ 0
G0
Wire Wire Line
	18650 2300 18650 3000
Connection ~ 18650 2300
Wire Wire Line
	18550 2300 18650 2300
Wire Wire Line
	18650 2200 18650 2300
Connection ~ 18650 2200
Wire Wire Line
	18550 2200 18650 2200
Text GLabel 18750 3900 2    50   Input ~ 0
LCD_CLK
Wire Wire Line
	18550 4900 18750 4900
Wire Wire Line
	18550 4800 18750 4800
Wire Wire Line
	18550 4700 18750 4700
Wire Wire Line
	18550 4600 18750 4600
Wire Wire Line
	18550 4400 18750 4400
Wire Wire Line
	18550 4300 18750 4300
Wire Wire Line
	18550 4200 18750 4200
Wire Wire Line
	18550 4100 18750 4100
Wire Wire Line
	18550 3900 18750 3900
Wire Wire Line
	18550 3700 18750 3700
Wire Wire Line
	18550 3600 18750 3600
Wire Wire Line
	18550 3500 18750 3500
Wire Wire Line
	18550 3400 18750 3400
Wire Wire Line
	18550 3300 18750 3300
Wire Wire Line
	18550 3200 18750 3200
Wire Wire Line
	18550 2900 18750 2900
Wire Wire Line
	18550 2800 18750 2800
Wire Wire Line
	18550 2700 18750 2700
Wire Wire Line
	18550 2600 18750 2600
Wire Wire Line
	18550 2500 18750 2500
Wire Wire Line
	18550 2400 18750 2400
Wire Wire Line
	18550 2100 18750 2100
Wire Wire Line
	18550 2000 18750 2000
Wire Wire Line
	18550 1900 18750 1900
Wire Wire Line
	18550 1800 18750 1800
Wire Wire Line
	18550 1600 18750 1600
Wire Wire Line
	18550 1400 18650 1400
Wire Wire Line
	18550 1200 18650 1200
Wire Wire Line
	18550 1100 18750 1100
Wire Wire Line
	18550 1000 18750 1000
Wire Wire Line
	18350 5100 18350 5300
$Comp
L power:GND #PWR?
U 1 1 5DCF101F
P 18650 5400
AR Path="/5D817847/5DCF101F" Ref="#PWR?"  Part="1" 
AR Path="/5D814579/5DCF101F" Ref="#PWR0109"  Part="1" 
F 0 "#PWR0109" H 18650 5150 50  0001 C CNN
F 1 "GND" H 18655 5227 50  0000 C CNN
F 2 "" H 18650 5400 50  0001 C CNN
F 3 "" H 18650 5400 50  0001 C CNN
	1    18650 5400
	1    0    0    -1  
$EndComp
Text Notes 17400 4300 0    50   ~ 0
LCD Display Connector
$Comp
L Connector_Generic_MountingPin:Conn_01x40_MountingPin J?
U 1 1 5DCF1018
P 18350 2900
AR Path="/5D817847/5DCF1018" Ref="J?"  Part="1" 
AR Path="/5D814579/5DCF1018" Ref="J1"  Part="1" 
F 0 "J1" H 18272 5017 50  0000 C CNN
F 1 "Conn_01x40_MountingPin" H 18272 4926 50  0000 C CNN
F 2 "futokoroshi:FFC-Socket_1x40POS_MOLEX_0541324062" H 18350 2900 50  0001 C CNN
F 3 "~" H 18350 2900 50  0001 C CNN
	1    18350 2900
	-1   0    0    -1  
$EndComp
Text Notes 18250 4900 2    50   ~ 0
Touch Panel
$EndSCHEMATC
